[
  {
    "title": "Eventum",
    "is_pro": false,
    "type": "gutenberg",
    "author": "Bosa Themes",
    "keywords": ["eventum", "multipurpose"],
    "categories": ["event"],
    "template_url": {
      "content": "https://gitlab.com/starter-sites/eventum-demo-list/-/raw/main/demo/content.json",
      "options": "https://gitlab.com/starter-sites/eventum-demo-list/-/raw/main/demo/options.json",
      "widgets": "https://gitlab.com/starter-sites/eventum-demo-list/-/raw/main/demo/widgets.json"
    },
    "screenshot_url": "https://gitlab.com/starter-sites/eventum-demo-list/-/raw/main/screenshots/eventum-250-350.jpg",
    "demo_url": "https://demo.bosathemes.com/fse/eventum/home",
    "plugins": [
      {
        "name": "Ultimate Addons for Gutenberg",
        "slug": "ultimate-addons-for-gutenberg"
      },
      {
        "name": "WooCommerce",
        "slug": "woocommerce"
      }
    ]
  }
]